{
    "discord": {
        "token": ""
    },
    "reddit": {
        "client_id": "",
        "client_secret": "",
        "username": "",
        "password": "",
        "user_agent": "",
        "subreddit": [
            {
                "name": "analog",
                "type": "hot",
                "posts": 5
            }
        ],
        "schedule_time": ["8:00", "12:00", "18:00"]
    }
}